procedure Id(var DataBase1:array of BankList; var DataBase2:array of DepartmentList; var n,m:byte);
var value,i,j,b,alone:byte;
          begin
              value:=1;
               for b:=1 to n do
                   begin
                   alone:=0;
                   for j:=1 to m do
                       for i:=1 to m do
                           begin
                            if DataBase1[b].BankName1=DataBase2[j].BankName2 then
                               begin
                                    if DataBase1[b].BankName1=DataBase2[i].BankName2 then
                                       begin
                                            alone:=1;
                                            if DataBase1[b].id<>0 then
                                               begin
                                                    DataBase2[j].id:=DataBase1[b].id;
                                                    DataBase2[i].id:=DataBase1[b].id;
                                               end
                                            else
                                              begin
                                                   if (DataBase2[j].id<>0) then
                                                      begin
                                                           DataBase1[b].id:=DataBase2[j].id;
                                                           DataBase2[i].id:=DataBase2[j].id;
                                                      end
                                                   else
                                                       begin
                                                            if (DataBase2[i].id<>0) then
                                                               begin
                                                                   DataBase1[b].id:=DataBase2[i].id;
                                                                   DataBase2[j].id:=DataBase2[i].id;
                                                               end
                                                            else
                                                                begin
                                                                     DataBase1[b].id:=value;
                                                                     DataBase2[j].id:=value;
                                                                     DataBase2[i].id:=value;
                                                                     value:=value+1;
                                                                end;
                                                       end;
                                              end;
                                       end;
                               end
                            else
                                begin
                                     if DataBase1[b].BankName1=DataBase2[i].BankName2 then
                                        begin
                                            alone:=1;
                                            if DataBase1[b].id<>0 then
                                                    DataBase2[i].id:=DataBase1[b].id
                                            else
                                              begin
                                                   if (DataBase2[i].id<>0) then
                                                      begin
                                                           DataBase1[b].id:=DataBase2[i].id;
                                                      end
                                                      else
                                                          begin
                                                               DataBase1[b].id:=value;
                                                               DataBase2[j].id:=value;
                                                               DataBase2[i].id:=value;
                                                               value:=value+1;
                                                          end;
                                              end
                                        end
                                     else
                                         begin
                                              if DataBase2[j].BankName2=DataBase2[i].BankName2 then
                                                 begin
                                                      if (DataBase2[j].id<>0) then
                                                         DataBase2[i].id:=DataBase2[j].id
                                                      else
                                                          begin
                                                               if (DataBase2[i].id<>0) then
                                                                  DataBase2[j].id:=DataBase2[i].id
                                                               else
                                                                   begin
                                                                        DataBase2[j].id:=value;
                                                                        DataBase2[i].id:=value;
                                                                        value:=value+1;
                                                                   end;
                                                          end;
                                                 end;
                                         end;
                                end;
                           end;
                           if alone=0 then
                              begin
                                   DataBase1[b].id:=value;
                                   value:=value+1;
                              end;
                   end;
          end;